summarize_representation_results – BEACONs R Tools
…
builder_tab <- utils::read.csv(file.path(dirpath, "data/builder_tbl_sample.csv"))
builder_tab$OID <- NULL
builder_tab <- dplyr::as_tibble(builder_tab)

conservation_area_results <- evaluate_targets_using_catchments(
  catchments_sf = catchments_nalc, 
  criteria_name = "nalc", 
  builder_table = builder_tab, 
  target_table = target_table, 
  network_list = colnames(builder_tab))

# View the first conservation area
print(conservation_area_results)

# A tibble: 90 x 6
   class_value area_km2 network  class_proportion target_km2 prop_target_met
         <dbl>    <dbl> <chr>               <dbl>      <dbl>           <dbl>
 1           0    0.214 PB_94784         0.00249        0.25            0.86
 2           1   36.4   PB_94784         0.230         23.0             1.59
 3           2    6.66  PB_94784         0.0340         3.4             1.96
 4           3   16.7   PB_94784         0.177         17.7             0.94
 5           4    0     PB_94784         0.0153         1.53            0   
 6           5   24.5   PB_94784         0.291         29.1             0.84
 7           6   38.5   PB_94784         0.220         22.0             1.75
 8           8    0     PB_94784         0.00683        0.68            0   
 9           9    0     PB_94784         0.000807       0.08            0   
10          11    3.92  PB_94784         0.0227         2.27            1.73
# i 80 more rows
…
# Evaluate the 3 reserves using the targets
reserves_results <- evaluate_targets_using_clip(
  conservation_areas_sf = reserves_sample, 
  conservation_areas_id = "reserve", 
  representation_raster = nalc, 
  target_table = target_table)

print(reserves_results)

# A tibble: 30 x 6
   class_value area_km2 network     class_proportion target_km2 prop_target_met
         <dbl>    <dbl> <chr>                  <dbl>      <dbl>           <dbl>
 1           0    1.85  Tombstone_1         0.00249        0.25            7.4 
 2           1    2.62  Tombstone_1         0.230         23.0             0.11
 3           2    3.50  Tombstone_1         0.0340         3.4             1.03
 4           3    1.81  Tombstone_1         0.177         17.7             0.1 
 5           4    0     Tombstone_1         0.0153         1.53            0   
 6           5   47.2   Tombstone_1         0.291         29.1             1.62
 7           6  158.    Tombstone_1         0.220         22.0             7.18
 8           8    0     Tombstone_1         0.00683        0.68            0   
 9           9    0.314 Tombstone_1         0.000807       0.08            3.93
10          11   42.2   Tombstone_1         0.0227         2.27           18.6 
# i 20 more rows
…
